%YAML 1.1
%TAG !u! tag:unity3d.com,2011:
--- !u!114 &11400000
MonoBehaviour:
  m_ObjectHideFlags: 0
  m_CorrespondingSourceObject: {fileID: 0}
  m_PrefabInstance: {fileID: 0}
  m_PrefabAsset: {fileID: 0}
  m_GameObject: {fileID: 0}
  m_Enabled: 1
  m_EditorHideFlags: 0
  m_Script: {fileID: 11500000, guid: 3ce5f75db884c2e409eb732b710ea623, type: 3}
  m_Name: ShipSFX FTL Travel Begin
  m_EditorClassIdentifier: 
  clipCollection:
    audioClips:
    - {fileID: 8300000, guid: 2141440b7e7f2224481ac14410e80b9c, type: 3}
  minPitch: 1
  maxPitch: 1
