%YAML 1.1
%TAG !u! tag:unity3d.com,2011:
--- !u!114 &-600351889083006333
MonoBehaviour:
  m_ObjectHideFlags: 11
  m_CorrespondingSourceObject: {fileID: 0}
  m_PrefabInstance: {fileID: 0}
  m_PrefabAsset: {fileID: 0}
  m_GameObject: {fileID: 0}
  m_Enabled: 1
  m_EditorHideFlags: 0
  m_Script: {fileID: 11500000, guid: da692e001514ec24dbc4cca1949ff7e8, type: 3}
  m_Name: 
  m_EditorClassIdentifier: 
  version: 2
--- !u!21 &2100000
Material:
  serializedVersion: 6
  m_ObjectHideFlags: 0
  m_CorrespondingSourceObject: {fileID: 0}
  m_PrefabInstance: {fileID: 0}
  m_PrefabAsset: {fileID: 0}
  m_Name: Sci-fi Rifle 1 Body HDRP MAT
  m_Shader: {fileID: -6465566751694194690, guid: 6d3d94fcd5134234d9f676ecae981ad2, type: 3}
  m_ShaderKeywords: 
  m_LightmapFlags: 4
  m_EnableInstancingVariants: 0
  m_DoubleSidedGI: 0
  m_CustomRenderQueue: -1
  stringTagMap:
    MotionVector: User
  disabledShaderPasses:
  - MOTIONVECTORS
  - TransparentDepthPrepass
  - TransparentDepthPostpass
  - TransparentBackface
  m_SavedProperties:
    serializedVersion: 3
    m_TexEnvs:
    - _BaseColorMask:
        m_Texture: {fileID: 2800000, guid: 29c5301164361974d8018ce92e724061, type: 3}
        m_Scale: {x: 1, y: 1}
        m_Offset: {x: 0, y: 0}
    - _BaseMap:
        m_Texture: {fileID: 2800000, guid: 03a6aa09b5a2ad24eb4d509261f3cbda, type: 3}
        m_Scale: {x: 1, y: 1}
        m_Offset: {x: 0, y: 0}
    - _EmissiveMap:
        m_Texture: {fileID: 2800000, guid: 3942575cd5c030e47a5eb5b8562f8d8f, type: 3}
        m_Scale: {x: 1, y: 1}
        m_Offset: {x: 0, y: 0}
    - _MaskMap:
        m_Texture: {fileID: 2800000, guid: 12df83428f687914aa93c80ed090ac76, type: 3}
        m_Scale: {x: 1, y: 1}
        m_Offset: {x: 0, y: 0}
    - _NormalMap:
        m_Texture: {fileID: 2800000, guid: 85424e4219e06384d9cd33dbb28480e9, type: 3}
        m_Scale: {x: 1, y: 1}
        m_Offset: {x: 0, y: 0}
    m_Floats:
    - _AOBoost: 0.059
    - _AlphaCutoff: 0.5
    - _AlphaCutoffEnable: 0
    - _AlphaDstBlend: 0
    - _AlphaSrcBlend: 1
    - _BaseMapBoost: 1
    - _BlendMode: 0
    - _CullMode: 2
    - _CullModeForward: 2
    - _DoubleSidedEnable: 0
    - _DoubleSidedNormalMode: 2
    - _DstBlend: 0
    - _EmissiveBoost: 0.7
    - _EnableFogOnTransparent: 1
    - _NormalInstensity: 0.6
    - _ReceivesSSR: 1
    - _RenderQueueType: 1
    - _RequireSplitLighting: 0
    - _SrcBlend: 1
    - _StencilRef: 0
    - _StencilRefDepth: 8
    - _StencilRefDistortionVec: 4
    - _StencilRefGBuffer: 10
    - _StencilRefMV: 40
    - _StencilWriteMask: 6
    - _StencilWriteMaskDepth: 8
    - _StencilWriteMaskDistortionVec: 4
    - _StencilWriteMaskGBuffer: 14
    - _StencilWriteMaskMV: 40
    - _SurfaceType: 0
    - _TransparentBackfaceEnable: 0
    - _TransparentCullMode: 2
    - _TransparentDepthPostpassEnable: 0
    - _TransparentDepthPrepassEnable: 0
    - _TransparentSortPriority: 0
    - _TransparentZWrite: 0
    - _UseShadowThreshold: 0
    - _UseTintColor: 0
    - _ZTestDepthEqualForOpaque: 3
    - _ZTestGBuffer: 4
    - _ZTestTransparent: 4
    - _ZWrite: 1
    - __SaturationAmount: 1
    m_Colors:
    - _DoubleSidedConstants: {r: 1, g: 1, b: -1, a: 0}
    - _EmissionColor: {r: 1, g: 1, b: 1, a: 1}
    - _EmissiveColor: {r: 64, g: 64, b: 64, a: 1}
    - _TintColor: {r: 0.7490196, g: 0.12156863, b: 0.011764706, a: 1}
  m_BuildTextureStacks: []
