%YAML 1.1
%TAG !u! tag:unity3d.com,2011:
--- !u!114 &11400000
MonoBehaviour:
  m_ObjectHideFlags: 0
  m_CorrespondingSourceObject: {fileID: 0}
  m_PrefabInstance: {fileID: 0}
  m_PrefabAsset: {fileID: 0}
  m_GameObject: {fileID: 0}
  m_Enabled: 1
  m_EditorHideFlags: 0
  m_Script: {fileID: 11500000, guid: 3ce5f75db884c2e409eb732b710ea623, type: 3}
  m_Name: Timid ShadeSFX Attack
  m_EditorClassIdentifier: 
  clipCollection:
    audioClips:
    - {fileID: 8300000, guid: ebf92ccc4a9d92a41a5db7792a6dc037, type: 3}
    - {fileID: 8300000, guid: fabc0c5568ad55440b10c02028a7eaf0, type: 3}
    - {fileID: 8300000, guid: 19dda8a78515d9e48ab96dbee6b406ee, type: 3}
    - {fileID: 8300000, guid: ab7c1667c4ca0b74098a165b251579ca, type: 3}
    - {fileID: 8300000, guid: fdd1a7debc56803438b2acb32ba32766, type: 3}
    - {fileID: 8300000, guid: 4825c9fa9ff28da46a3782d9fbaf8324, type: 3}
    - {fileID: 8300000, guid: 72165969114e4374995ecd2fc2be5d5a, type: 3}
    - {fileID: 8300000, guid: 2a598ebf1163ad346bfd13ca1d292a55, type: 3}
    - {fileID: 8300000, guid: f97418aa63927f84abe16e3a57680eea, type: 3}
    - {fileID: 8300000, guid: 973c049b965707f4a94466fbce42c666, type: 3}
    - {fileID: 8300000, guid: 9f3ead638e7c8d544a3bf437593dcfac, type: 3}
    - {fileID: 8300000, guid: daaae49568c4cae4197e8482d8858ef9, type: 3}
  minPitch: 1
  maxPitch: 1.2
  timeBetweenClips: 0
